…
# notice the column names, let's fix that

relig_income %>% 
  pivot_longer(-religion, names_to = "income", values_to = "frequency")

## # A tibble: 180 x 3
##    religion income             frequency
##    <chr>    <chr>                  <dbl>
##  1 Agnostic <$10k                     27
##  2 Agnostic $10-20k                   34
##  3 Agnostic $20-30k                   60
##  4 Agnostic $30-40k                   81
##  5 Agnostic $40-50k                   76
##  6 Agnostic $50-75k                  137
##  7 Agnostic $75-100k                 122
##  8 Agnostic $100-150k                109
##  9 Agnostic >150k                     84
## 10 Agnostic Don't know/refused        96
## # ... with 170 more rows
…
The above dataset records the date a song first entered the billboard top 100. It has variables for artist, track, date.entered, rank and week. The rank in each week after it enters the top 100 is recorded in 75 columns, wk1 to wk75. This form of storage is not tidy, but it is useful for data entry. It reduces duplication since otherwise each song in each week would need its own row, and song metadata like title and artist would need to be repeated.

billboard %>% 
  pivot_longer(
    wk1:wk76, 
    names_to = "week", 
    values_to = "rank", 
    values_drop_na = TRUE
  ) %>%
  mutate(week = as.integer(gsub("wk", "", week)),
         date = as.Date(as.Date(date.entered) + 7 * (week - 1)),
         date.entered = NULL)

## # A tibble: 5,307 x 5
##    artist  track                    week  rank date      
##    <chr>   <chr>                   <int> <dbl> <date>    
##  1 2 Pac   Baby Don't Cry (Keep...     1    87 2000-02-26
##  2 2 Pac   Baby Don't Cry (Keep...     2    82 2000-03-04
##  3 2 Pac   Baby Don't Cry (Keep...     3    72 2000-03-11
##  4 2 Pac   Baby Don't Cry (Keep...     4    77 2000-03-18
##  5 2 Pac   Baby Don't Cry (Keep...     5    87 2000-03-25
##  6 2 Pac   Baby Don't Cry (Keep...     6    94 2000-04-01
##  7 2 Pac   Baby Don't Cry (Keep...     7    99 2000-04-08
##  8 2Ge+her The Hardest Part Of ...     1    91 2000-09-02
##  9 2Ge+her The Hardest Part Of ...     2    87 2000-09-09
## 10 2Ge+her The Hardest Part Of ...     3    92 2000-09-16
## # ... with 5,297 more rows
…
