A minimal knitr example in HTML
…
billboard %>%
    pivot_longer(
      wk1:wk76,
      names_to = "week",
      values_to = "rank",
      values_drop_na = TRUE
    ) %>%
    mutate(week = as.integer(gsub("wk", "", week)),
           date = as.Date(as.Date(date.entered) + 7 * (week - 1)),
           date.entered = NULL)

## # A tibble: 5,307 x 5
##    artist  track                    week  rank date      
##    <chr>   <chr>                   <int> <dbl> <date>    
##  1 2 Pac   Baby Don't Cry (Keep...     1    87 2000-02-26
##  2 2 Pac   Baby Don't Cry (Keep...     2    82 2000-03-04
##  3 2 Pac   Baby Don't Cry (Keep...     3    72 2000-03-11
##  4 2 Pac   Baby Don't Cry (Keep...     4    77 2000-03-18
##  5 2 Pac   Baby Don't Cry (Keep...     5    87 2000-03-25
##  6 2 Pac   Baby Don't Cry (Keep...     6    94 2000-04-01
##  7 2 Pac   Baby Don't Cry (Keep...     7    99 2000-04-08
##  8 2Ge+her The Hardest Part Of ...     1    91 2000-09-02
##  9 2Ge+her The Hardest Part Of ...     2    87 2000-09-09
## 10 2Ge+her The Hardest Part Of ...     3    92 2000-09-16
## # ... with 5,297 more rows
